[
	{
		"user": "cybercesarnet", 
		"pass": "ad123"
	}, 

	{
		"user": "gleydsoneps", 
		"pass": "ad123"
	}, 

	{
		"user": "walmirmelo", 
		"pass": "ad123"
	}, 

	{
		"user": "iildaemanoely", 
		"pass": "ad123"
	}, 

	{
		"user": "rodrigowar13", 
		"pass": "ad123"
	}, 

	{
		"user": "dbdbGui", 
		"pass": "ad123"
	}, 

	{
		"user": "antoniotavarespereira", 
		"pass": "ad123"
	}, 

	{
		"user": "michel051", 
		"pass": "ad123"
	}, 

	{
		"user": "adrferreira4", 
		"pass": "ad123"
	}, 

	{
		"user": "ygorcastor", 
		"pass": "ad123"
	}, 

	{
		"user": "ghsantalucia", 
		"pass": "ad123"
	}, 

	{
		"user": "nachocruel", 
		"pass": "ad123"
	}, 

	{
		"user": "akirateste1", 
		"pass": "ad123"
	}, 

	{
		"user": "caiolbarros", 
		"pass": "ad123"
	}, 

	{
		"user": "svitorroberto", 
		"pass": "ad123"
	}, 

	{
		"user": "raquelAndr", 
		"pass": "ad123"
	}, 

	{
		"user": "oliverher", 
		"pass": "ad123"
	}, 

	{
		"user": "rafhaelarf", 
		"pass": "ad123"
	}, 

	{
		"user": "silviopassos", 
		"pass": "ad123"
	}, 

	{
		"user": "hogait", 
		"pass": "ad123"
	}, 

	{
		"user": "marco.novaes93", 
		"pass": "ad123"
	}, 

	{
		"user": "lipitos", 
		"pass": "ad123"
	}, 

	{
		"user": "jeniffersilva", 
		"pass": "ad123"
	}, 

	{
		"user": "Allan90", 
		"pass": "ad123"
	}, 

	{
		"user": "JoseUmberto", 
		"pass": "ad123"
	}, 

	{
		"user": "pedrooliveira23", 
		"pass": "ad123"
	}, 

	{
		"user": "gustavo123av", 
		"pass": "ad123"
	}, 

	{
		"user": "gilmar.bernardes", 
		"pass": "ad123"
	}, 

	{
		"user": "fernandodsf", 
		"pass": "ad123"
	}, 

	{
		"user": "marceloakira", 
		"pass": "ad123"
	}
]